[gd_scene load_steps=6 format=2]

[ext_resource path="res://Player.gd" type="Script" id=1]
[ext_resource path="res://ui/selected.png" type="Texture" id=2]
[ext_resource path="res://goalie/idle_fwd.png" type="Texture" id=3]
[ext_resource path="res://audio/shoot1_random.tres" type="AudioStream" id=4]

[sub_resource type="CapsuleShape2D" id=1]

custom_solver_bias = 0.0
radius = 20.0
height = 50.0

[node name="Goalie" type="Area2D" groups=[
"Goalie",
"Player",
"Resetable",
]]

input_pickable = true
gravity_vec = Vector2( 0, 1 )
gravity = 98.0
linear_damp = 0.1
angular_damp = 1.0
collision_layer = 2
collision_mask = 15
audio_bus_override = false
audio_bus_name = "Master"
script = ExtResource( 1 )
_sections_unfolded = [ "Collision" ]
teamIndex = 0

[node name="SelectedIndicator" type="Sprite" parent="." index="0"]

visible = false
position = Vector2( 1.45995, 11.3876 )
scale = Vector2( 1.5, 1.5 )
texture = ExtResource( 2 )
_sections_unfolded = [ "Invert", "Transform", "Visibility" ]

[node name="Sprite" type="Sprite" parent="." index="1"]

position = Vector2( -0.50213, -0.118414 )
texture = ExtResource( 3 )

[node name="CollisionShape2D" type="CollisionShape2D" parent="." index="2"]

shape = SubResource( 1 )
_sections_unfolded = [ "Transform" ]

[node name="ShootAudioPlayer" type="AudioStreamPlayer2D" parent="." index="3"]

stream = ExtResource( 4 )
volume_db = 0.0
autoplay = false
max_distance = 2000.0
attenuation = 1.0
bus = "Master"
area_mask = 1

[connection signal="area_entered" from="." to="." method="_on_area_entered"]


